STAT 508 Final Project Analysis
…
ggsave(plot = last_plot(), path = here("out"), filename = "rf-initial-roc-tune.png")

We can see that lower values of min_n are better, and no pattern with mtry. Lets create a regular grid to do a finer optimization.

rf_grid <- grid_regular(
  mtry(range = c(0, 25)),
  min_n(range = c(1, 10)),
  levels = 6
)

rf_grid

## # A tibble: 36 x 2
##     mtry min_n
##    <int> <int>
##  1     0     1
##  2     5     1
##  3    10     1
##  4    15     1
##  5    20     1
##  6    25     1
##  7     0     2
##  8     5     2
##  9    10     2
## 10    15     2
## #  with 26 more rows
…
# Specify kNN model
knn_spec <- nearest_neighbor(
  neighbors = tune()
) %>%
  set_engine("kknn") %>%
  set_mode("classification")

knn_grid <- grid_regular(
  neighbors(range = c(1, 70)),
  levels = 51
)

knn_grid

## # A tibble: 51 x 1
##    neighbors
##        <int>
##  1         1
##  2         2
##  3         3
##  4         5
##  5         6
##  6         7
##  7         9
##  8        10
##  9        12
## 10        13
## #  with 41 more rows
…
