…
```r
vars <- credit %>%
  select(-c(Time, Amount, log_amount, Class)) %>%
  sapply(var) %>%
  sort(decreasing = TRUE) %>%
  as_tibble()

vars
```

```
## # A tibble: 28 x 1
##    value
##    <dbl>
##  1  3.84
##  2  2.73
##  3  2.30
##  4  2.00
##  5  1.91
##  6  1.77
##  7  1.53
##  8  1.43
##  9  1.21
## 10  1.19
## # … with 18 more rows
```
…
